^C:\USERS\RAINBOWDASH\DOCUMENTS\VISUAL STUDIO 2019\PROJECTS\CONSTRUCTANDASSIGMENTOPER\X64\DEBUG\CONSTRUCTANDASSIGMENTOPER.OBJ
C:\USERS\RAINBOWDASH\DOCUMENTS\VISUAL STUDIO 2019\PROJECTS\CONSTRUCTANDASSIGMENTOPER\X64\DEBUG\CONSTRUCTANDASSIGMENTOPER.ILK
C:\USERS\RAINBOWDASH\DOCUMENTS\VISUAL STUDIO 2019\PROJECTS\CONSTRUCTANDASSIGMENTOPER\X64\DEBUG\CONSTRUCTANDASSIGMENTOPER.EXE
C:\USERS\RAINBOWDASH\DOCUMENTS\VISUAL STUDIO 2019\PROJECTS\CONSTRUCTANDASSIGMENTOPER\X64\DEBUG\CONSTRUCTANDASSIGMENTOPER.PDB
